﻿NS40;E3 NS40 FE;168;1
NS40;E3 NS40 FE I;168;1
N40;E3 N40 FE;160;1
N40;E3 N40 FE I;160;1
42;E3 42 FE;125;1
42;E3 42 FE I;125;1
42;E3 42 FE;125;1
42;E3 42 FE I;125;1
55;E3 55 FE;125;1
55;E3 55 FE I;125;1
34;E3 34 FE;80;1
34;E3 34 FE I;80;1
34;E3 34 FE;80;1
34;E3 34 FE I;80;1
24;E3 24 FE;80;1
24;E3 24 FE I;80;1
24;E3 24 FE;80;1
24;E3 24 FE I;80;1
27;E3 27 FE;80;1
27;E3 27 FE I;80;1
30H;E3 30H HD I;84;1
30H;E3 30H SHD I;84;1
30H;E3 30H MHD I;84;1
31;E3 31 SHD I;84;1
31;E3 31 MHD I;84;1
N100;E3 N100 SHD I;72;1
N100;E3 N100 MHD I;72;1
4DLT;E3 4DLT SHD I;40;1
N120;E3 N120 MHD;48;1
N150;E3 N150 HD;40;1
N150;E3 N150 SHD;40;1
N150;E3 N150 MHD;40;1
N200;E3 N200 SHD;32;1
N200;E3 N200 MHD;32;1
U1;E3 U1 HD I;168;1
30H;E3 30H HD I (WT);84;1
N120;E3 N120 MHD (WT);48;1
N150;E3 N150 HD (WT);40;1
34;E4 34 HP (WT);80;1
NS40;E4 NS40 HP;168;1
NS40;E4 NS40 HP I;168;1
N40;E4 N40 HP;160;1
N40;E4 N40 HP I;160;1
36;E4 36 HP;125;1
36;E4 36 HP;125;1
36;E4 36 HP;125;1
36;E4 36 HP;125;1
36A;E4 36 HP;125;1
42;E4 42 HP;125;1
42;E4 42 HP I;125;1
55;E4 55 HP;125;1
55;E4 55 HP I;125;1
65A;E4 65 HP;100;1
F65;E4 F65 HP I;80;1
66;E4 66 HP;100;1
66;E4 66 HP I;100;1
48;E4 48 HP;100;1
24;E4 24 HP;80;1
24;E4 24 HP I;80;1
34;E4 34 HP;80;1
34;E4 34 HP I;80;1
27;E4 27 HP;80;1
27;E4 27 HP I;80;1
49;E4 49 HP;60;1
55;E4 55 HD;125;1
55;E4 55 HD I;125;1
36A;E4 36 HP AYMESA;125;1
55;E4 55 FE AYMESA;125;1
55;E4 55 HP AYMESA;125;1
NS40;E5 NS40 MP;168;1
NS40;E5 NS40 MP I;168;1
N40;E5 N40 MP;160;1
N40;E5 N40 MP I;160;1
42;E5 42 MP;125;1
55;E5 55 MP;125;1
48;E5 48 MP;100;1
F65;E5 F65 MP I;80;1
24;E5 24 MP;80;1
24;E5 24 MP I;80;1
34;E5 34 MP;80;1
34;E5 34 MP I;80;1
27;E5 27 MP;80;1
27;E5 27 MP I;80;1
NS40;H4 NS40 650;168;1
NS40;H4 NS40I 650;168;1
N40;H4 NS60 700;160;1
N40;H4 NS60I 700;160;1
36;H4 36 750;125;1
42;H4 42 750;125;1
42;H4 42I 750;125;1
42;H4 42I 750;125;1
55;H4 42 600;125;1
55;H4 42I 600;125;1
55;H4 47 800;125;1
55;H4 47I 800;125;1
65A;H4 35 700;100;1
F65;H4 F65 1200;80;1
48;H4 48 1050;100;1
24;H4 24 700;80;1
24;H4 24I 700;80;1
24;H4 24 800;80;1
24;H4 24I 800;80;1
34;H4 34 850;80;1
34;H4 34I 850;80;1
34;H4 34 950;80;1
34;H4 34I 950;80;1
34;H4 34 950;80;1
34;H4 34I 950;80;1
34;H4 34 1000;80;1
34;H4 34I 1000;80;1
27;H4 27 1000;80;1
27;H4 27I 1000;80;1
49;H4 49 800;60;1
30H;H4 30H 880;84;1
30H;H4 30H 880;84;1
30H;H4 30H 1000;84;1
30H;H4 30H 1000;84;1
31;H4 31T 1000;84;1
N100;H4 N100;72;1
N150;H4 4D 1300;40;1
N150;H4 4D 1400;40;1
N150;H4 4D 1500;40;1
N200;H4 8D 1600;32;1
66;H4 66I 1050;100;1
N120;H4 N120 1300;48;1
NS40;ELEKTRA NS40 HP;168;1
NS40;ELEKTRA NS40 HP I;168;1
N40;ELEKTRA N40 HP;160;1
N40;ELEKTRA N40 HP I;160;1
36;ELEKTRA 36 HP;125;1
42;ELEKTRA 42 HP;125;1
42;ELEKTRA 42 HP I;125;1
42;ELEKTRA 42 MP;125;1
42;ELEKTRA 42 MP I;125;1
42;ELEKTRA 42 MP I;125;1
55;ELEKTRA 55 HP;125;1
55;ELEKTRA 55 HP I;125;1
65A;ELEKTRA 65 HP;100;1
F65;ELEKTRA 6590 / F65 MP I;80;1
66;ELEKTRA 48 / 66 HP;100;1
66;ELEKTRA 48 / 66 HP I;100;1
48;ELEKTRA 48 MP;100;1
24;ELEKTRA 24 HP;80;1
24;ELEKTRA 24 HP I;80;1
24;ELEKTRA 24 MP;80;1
24;ELEKTRA 24 MP I;80;1
34;ELEKTRA 34 HP;80;1
34;ELEKTRA 34 HP I;80;1
34;ELEKTRA 34 MP;80;1
34;ELEKTRA 34 MP I;80;1
27;ELEKTRA 27 MP;80;1
27;ELEKTRA 27 MP I;80;1
49;ELEKTRA 88 / 49 MP;60;1
30H;ELEKTRA 30H HD I;84;1
31;ELEKTRA 31 HD I;84;1
N100;ELEKTRA N100 HD I;72;1
N100;ELEKTRA N100 SHD I;72;1
N120;ELEKTRA N120 SHD;48;1
4DLT;ELEKTRA 4DLT HD I;40;1
N150;ELEKTRA N150 HD;40;1
N150;ELEKTRA N150 SHD;40;1
N200;ELEKTRA N200 HD;32;1
GC2;ELEKTRA GC2 605;80;1
U1;ELEKTRA U1 HD I;168;1
N40;MOTOREX NS60LZ (S);160;1
42;MOTOREX 42I700;125;1
N100;MOTOREX N100;72;1
N120;MOTOREX N120 SHD;48;1
N150;MOTOREX 4D1450;40;1
N200;MOTOREX 8D1500;32;1
NS40;HGCNS40-45N;168;1
NS40;HGCNS40-45I;168;1
N40;HGCN40-45N;160;1
N40;HGCN40-45I;160;1
36;HGC36-60N;125;1
42;HGC42-55N;125;1
42;HGC42-55I;125;1
42;HGC42-60N;125;1
42;HGC42-60I;125;1
42;HGC42-70N;125;1
42;HGC42-70I;125;1
42;HGC42-70I;125;1
65A;HGC25-85N;100;1
F65;HGC65-100I;80;1
66;HGC66-80N;100;1
66;HGC66-80I;100;1
24;HGC24-80N;80;1
24;HGC24-80I;80;1
34;HGC34-70N;80;1
34;HGC34-70I;80;1
34;HGC34-80N;80;1
34;HGC34-80I;80;1
34;HGC34-95N;80;1
27;HGC27-93N;80;1
27;HGC27-93I;80;1
30H;HGC30O-105;84;1
31;HGC31TP-105;84;1
N100;HGCN100-107;72;1
N120;HGCN120-140;48;1
N150;HGCN150-150;40;1
N200;HGCN200-195;32;1
GC2;R4 GC2 R605;80;1
GC2;R4 GC2 R105;80;1
NS40;BR NS40 370D;168;1
NS40;BR NS40 370I;168;1
NS40;BR NS40 400D;168;1
NS40;BR NS40 400I;168;1
N40;BR N40 370D;160;1
N40;BR N40 370I;160;1
N40;BR N40 440D;160;1
N40;BR N40 440I;160;1
36;BR 36 365D;125;1
36;BR 36 440D;125;1
42;BR 42 350D;125;1
42;BR 42 350I;125;1
42;BR 42 460D;125;1
42;BR 42 460I;125;1
42;BR 42 500D;125;1
55;BR 55 500D;125;1
55;BR 55 500I;125;1
55;BR 55 540D;125;1
55;BR 55 540I;125;1
65A;BR 65 520;100;1
F65;BR 65 750I;80;1
48;BR 48 600D;100;1
48;BR 48 700D;100;1
24;BR 24 440D;80;1
24;BR 24 440I;80;1
24;BR 24 570D;80;1
24;BR 24 570I;80;1
24;BR 24 680D;80;1
24;BR 24 680I;80;1
34;BR 34 530D;80;1
34;BR 34 530I;80;1
34;BR 34 600D;80;1
34;BR 34 600I;80;1
34;BR 34 700D;80;1
34;BR 34 700I;80;1
27;BR 27 650D;80;1
27;BR 27 650I;80;1
27;BR 27 700D;80;1
27;BR 27 700I;80;1
49;BR 49 780D;60;1
30H;BR 30H 630;84;1
30H;BR 30H 720;84;1
30H;BR 30H 900;84;1
31;BR 31T 720;84;1
31;BR 31T 900;84;1
N100;BR N100 650;72;1
N100;BR N100 840;72;1
N120;BR N120 880;48;1
4DLT;BR 4DLT 830;40;1
N150;BR 4D 880;40;1
N150;BR 4D 940;40;1
N150;BR 4D 1050;40;1
N200;BR 8D 1130;32;1
N200;BR 8D 1330;32;1
N200;BR 8D 1330;32;1
U1;BR U1 275;168;1
NS40;BR NS40 370D;168;1
42;BR 42 460D;125;1
55;BR 55 540D;125;1
24;BR 24 570D;80;1
34;BR 34 600D;80;1
27;BR 27 650D;80;1
65A;BR 65 520;100;1
48;BR 48 600D;100;1
30H;BR 30H 720;84;1
N100;BR N100 650;72;1
N150;BR 4D 940;40;1
N200;BR 8D 1130;32;1
NS40;SV NS40 650;168;1
NS40;SV NS40I 650;168;1
N40;SV NS60 700;160;1
N40;SV NS60I 700;160;1
36;SV 36 750;125;1
42;SV 42 750;125;1
42;SV 42I 750;125;1
42;SV 42I 750;125;1
42;SV 42 600;125;1
42;SV 42I 600;125;1
55;SV 47 800;125;1
55;SV 47I 800;125;1
65A;SV 35 700;100;1
F65;SV F65 1200;80;1
66;SV 66 1000;100;1
48;SV 48 1050;100;1
24;SV 24 700;80;1
24;SV 24I 700;80;1
24;SV 24 800;80;1
24;SV 24I 800;80;1
34;SV 34 850;80;1
34;SV 34I 850;80;1
34;SV 34 950;80;1
34;SV 34I 950;80;1
34;SV 34 950;80;1
34;SV 34I 950;80;1
34;SV 34 1000;80;1
34;SV 34I 1000;80;1
27;SV 27 1000;80;1
27;SV 27I 1000;80;1
49;SV 49 800;60;1
30H;SV 30H 880;84;1
30H;SV 30H 1000;84;1
31;SV 31T 1000;84;1
N100;SV N100;72;1
N150;SV 4D 1300;40;1
N150;SV 4D 1400;40;1
N150;SV 4D 1500;40;1
N200;SV 8D 1600;32;1
55;SV TX 55 800;125;1
55;SV TX 55I 800;125;1
N40;MX H.C NS60D 600;160;1
N40;MX H.C NS60I 600;160;1
65A;MX H.C 65D 800;100;1
55;MX H.C 55D 800;125;1
55;MX H.C 55I 800;125;1
34;MX H.C 34D 1000;80;1
34;MX H.C 34I 1000;80;1
34;MX H.C 34D 1000;80;1
34;MX H.C 34I 1000;80;1
27;MX H.C 27D 1100;80;1
27;MX H.C 27I 1100;80;1
36;HD 36 HP;125;1
65A;HD 65 HP;100;1
34;HD 34 HP;80;1
N40;NS60L-VK650;160;1
36;36HP-VK650;150;1
42;42HP-VK700;168;1
42;42HPI-VK700;168;1
55;55HP-VK750;140;1
55;55HPI-VK750;140;1
66;48HP-VK900;120;1
66;48HPI-VK900;120;1
34;34HP-VK900;120;1
34;34HPI-VK900;120;1
24;24HP-VK900;120;1
24;24HPI-VK900;120;1
27;27HP-VK1000;105;1
27;27HPI-VK1000;105;1
F65;65HPI-VK1000;108;1
30H;OPTIMUS DUTY 30H-VK1100;72;1
31;OPTIMUS DUTY 31T-VK1100;72;1
N150;OPTIMUS DUTY 4D-VK1400;40;1
N150;OPTIMUS DUTY 4D-VK1400;40;1
N200;OPTIMUS DUTY 8D-VK1550;32;1
GC2;VOLTEK GC2-VK105;80;1
36;NOMIKS 36HP-VKN700;150;1
55;NOMIKS 55HP-VKN800;168;1
55;NOMIKS 55HPI-VKN800;168;1
34;NOMIKS 34HP-VKN900;144;1
34;NOMIKS 34HPI-VKN900;144;1
27;NOMIKS 27HP-VKN1000;105;1
27;NOMIKS 27HPI-VKN1000;105;1
NS40;ENERGY-K NS40L-VK700 SMF;200;1
N40;ENERGY-K NS60-VK750 SMF;160;1
36;ENERGY-K 36I-VK750 SMF;150;1
42;ENERGY-K 42I-VK850 SMF;168;1
42;ENERGY-K 42-VK850 SMF;168;1
55;ENERGY-K 47R-VK900 SMF;140;1
66;ENERGY-K 48I-VK1000 SMF;120;1
F65;ENERGY-K 65-VK1000 SMF;108;1
65A;ENERGY-K 35-VK850 SMF;140;1
34;ENERGY-K 34R-VK1100 SMF;120;1
34;ENERGY-K 34-VK1100 SMF;120;1
27;ENERGY-K 27R-VK1100 SMF;105;1
27;ENERGY-K 27-VK1100 SMF;105;1
49;ENERGY-K 49R-VK1200 SMF;90;1
30H;OPTIMUS DUTY 30H-VK1200;72;1
31;OPTIMUS DUTY 31T-VK1200;72;1
4DLT;OPTIMUS DUTY 4DLT-VK1300;40;1
4DLT;OPTIMUS DUTY 4DLT-VK1300;40;1
N150;OPTIMUS DUTY COL. 4D-VK1400;40;1
GC2;VOLTEK GC2-VK605;80;1
NS40;TB NS40ZPP-L;200;1
N40;TB NS60ZPP-L;160;1
24;TB 24800PP-L;120;1
24;TB 24800PP-R;120;1
27;TB 27850PP-L;105;1
27;TB 27850PP-R;105;1
27;TB 27850PP-L;105;1
27;TB 27850PP-R;105;1
NS40;TB NS40R-L;200;1
55;TB 47650R-L;140;1
24;TB 24700R-L;120;1
NS40;TB NS40ZZY-L;200;1
NS40;TB NS40ZB-L;200;1
N40;TB NS60ZR-L;160;1
N40;TB NS60ZZB-L;160;1
N40;TB NS60ZZY-L;160;1
N40;TB NS60ZZY-R;160;1
55;TB 47800Y-L;140;1
55;TB 47800Y-R;140;1
24;TB 24950Y-L;120;1
24;TB 24950Y-R;120;1
27;TB 271000Y-L;105;1
27;TB 271000Y-R;105;1
N200;TB 8D1600B;32;1
42;TP 42 650 EXP;168;1
42;TP 42I 650 EXP;168;1
65A;TP 35 800 EXP;120;1
F65;TP 65 1200 EXP;108;1
31;TP 31T 1000 EXP;72;1
4DLT;TP 4DLT 1250 EXP;40;1
N150;TP 4D 1300 EXP;40;1
N150;TP 4D 1500 EXP;40;1
N150;TP 4D 1500 EXP;40;1
N200;TP 8D 1500 EXP;32;1
N200;TP 8D 1600 EXP;32;1
N200;TP 8D 1600 EXP;32;1
GC2;PFM GC2 605;80;1
GC2;PFM GC2 105;60;1
GC2;PFM GC2 225;80;1
48;PFM 48D 670;120;1
65A;PFM 35D 550;120;1
NS40;H4 NS40 500 EXP;200;1
NS40;H4 NS40 I 500 EXP;200;1
NS40;H4 NS40 600 EXP;200;1
NS40;H4 NS40 I 600 EXP;200;1
NS40;H4 NS40 650 EXP;200;1
NS40;H4 NS40 I 650 EXP;200;1
N40;H4 NS60 600 EXP;160;1
N40;H4 NS60 I 600 EXP;160;1
N40;H4 NS60 650 EXP;160;1
N40;H4 NS60 I 650 EXP;160;1
N40;H4 NS60 700 EXP;160;1
N40;H4 NS60 I 700 EXP;160;1
36;H4 36 600 EXP;150;1
36;H4 36 750 EXP;150;1
36A;H4 36L1 750 EXP;150;1
42;H4 42 750 EXP;168;1
42;H4 42 I 750 EXP;168;1
42;H4 42 780 EXP;140;1
42;H4 42 I 780 EXP;140;1
42;H4 42 850 EXP;140;1
42;H4 42 I 850 EXP;140;1
42;H4 55D-42 650 EXP;168;1
42;H4 55I-42 650 EXP;168;1
55;H4 55 700 EXP;140;1
55;H4 55 I 700 EXP;140;1
55;H4 55 800 EXP;140;1
55;H4 55 I 800 EXP;140;1
66;H4 66 900 EXP;120;1
66;H4 66 1000 EXP;120;1
66;H4 66 I 1000 EXP;120;1
49;H4 49 1100 EXP;90;1
34;H4 34 780 EXP;120;1
34;H4 34 I 780 EXP;120;1
34;H4 34 1000 EXP;120;1
34;H4 34 I 1000 EXP;120;1
34;H4 34 1000 EXP;120;1
34;H4 34 I 1000 EXP;120;1
48;H4 48 1050 EXP;120;1
F65;H4 65 1200 EXP;108;1
65A;H4 35-65 780 EXP;120;1
24;H4 24 800 EXP;120;1
24;H4 24 I 800 EXP;120;1
24;H4 24 850 EXP;120;1
24;H4 24 I 850 EXP;120;1
24;H4 24 1100 EXP;120;1
24;H4 24 I 1100 EXP;120;1
24;H4 24 1100 EXP;120;1
24;H4 24 I 1100 EXP;120;1
27;H4 27 1000 EXP;105;1
27;H4 27 I 1000 EXP;105;1
27;H4 27 1000 EXP;105;1
27;H4 27 1100 EXP;105;1
27;H4 27 I 1100 EXP;105;1
27;H4 27 1200 EXP;105;1
27;H4 27 I 1200 EXP;105;1
27;H4 27 1200 EXP;105;1
27;H4 27 I 1200 EXP;105;1
30H;H4 30H I 1130 EXP;72;1
30H;H4 30H I 1200 EXP;72;1
30H;H4 30H I 1300 EXP;72;1
31;H4 31H I 1200 EXP;72;1
31;H4 31H I 1300 EXP;72;1
N100;H4 N100 1000 EXP;56;1
N120;H4 N120 1330 EXP;48;1
N120;H4 N120 1330 EXP;48;1
4DLT;H4 4DLT 1250 EXP;40;1
4DLT;H4 4DLT 1250 EXP;40;1
N150;H4 4D 1400 EXP;40;1
N150;H4 4D 1550 EXP;40;1
N150;H4 4D I 1550 EXP;40;1
N150;H4 4D 1550 EXP;40;1
N150;H4 4D I 1650 EXP;40;1
N200;H4 8D 1850 EXP;32;1
N200;H4 8D I 1850 EXP;32;1
N200;H4 8D 2000 EXP;32;1
GC2;GC6-1200-6V GOLF;60;1
NS40;NB NS40D 700;200;1
N40;NB NS60D 720;160;1
N40;NB NS60I 720;160;1
36;NB 36D 780;150;1
42;NB 42D 700;168;1
42;NB 42I 700;168;1
30H;NB 30H 1200;72;1
31;NB 31T 1200;72;1
N150;NB 4D 1500;40;1
N150;NB 4D 1500;40;1
42;NB 42D 850;168;1
42;NB 42I 850;168;1
55;NB 47D 900;140;1
49;NB 49D 1200;90;1
34;NB 34D 1100;120;1
34;NB 34I 1100;120;1
48;NB 48D 1100;120;1
65A;NB 35D 900;120;1
27;NB 27D 1150;105;1
27;NB 27I 1150;105;1
27;NB 27D 1150;105;1
27;NB 27I 1150;105;1
NS40;AM NS40ZL;200;1
N40;AM 51 440 R;160;1
36;AM 99 R;150;1
42;AM 42 350 R;168;1
42;AM 42 350;168;1
42;AM 42 410 R;168;1
55;AM 47 450 R;140;1
65A;AM 35 400 R;140;1
48;AM 48 670;120;1
24;AM 24 400 R;144;1
24;AM 24 400;144;1
27;AM 27 630 R;105;1
27;AM 27 630;105;1
27;AM 27 630 R;105;1
27;AM 27 630;105;1
49;AM 49 750;90;1
30H;AM 30H 700;72;1
31;AM 31 750;72;1
N150;AM 4D 950;40;1
N150;AM 4D 950;40;1
N200;AM 8D 1300;32;1
GC2;AM 6V 205AH;80;1
NS40;R4 NS40 600 EXP;200;1
NS40;R4 NS40I 600 EXP;200;1
N40;R4 NS60 650 EXP;160;1
N40;R4 NS60I 650 EXP;160;1
36;R4 36 750 EXP;150;1
42;R4 42 750 EXP;168;1
42;R4 42I 750 EXP;168;1
55;R4 47 850 EXP;140;1
55;R4 47I 850 EXP;140;1
66;R4 66 900 EXP;120;1
66;R4 66I 900 EXP;120;1
34;R4 34 780 EXP;120;1
34;R4 34I 780 EXP;120;1
48;R4 48 1050 EXP;120;1
49;R4 49 1100 EXP;90;1
F65;R4 65 1200 EXP;108;1
65A;R4 35 800 EXP;140;1
24;R4 24 800 EXP;120;1
24;R4 24I 800 EXP;120;1
27;R4 27 1000 EXP;105;1
27;R4 27I 1000 EXP;105;1
30H;R4 30H 1000 EXP;72;1
31;R4 31T 1000 EXP;72;1
4DLT;R4 4DLT 1250 EXP;40;1
N150;R4 4D 1300 EXP;40;1
N150;R4 4D 1500 EXP;40;1
N150;R4 4D 1500 EXP;40;1
N200;R4 8D 1500 EXP;32;1
N200;R4 8D 1600 EXP;32;1
GC2;R4 GC2 105 EXP;80;1
NS40;R4 CU NS40 600 EXP;200;1
NS40;R4 CU NS40 700 EXP;200;1
42;R4 CU 42 750 EXP;168;1
66;R4 CU 66 900 EXP;120;1
48;R4 CU 48 1050 EXP;120;1
49;R4 CU 49 1100 EXP;90;1
65A;R4 CU 35 800 EXP;120;1
27;R4 CU 27 1000 EXP;105;1
27;R4 CU 27 1000 EXP;105;1
30H;R4 CU 30H 950 EXP;72;1
31;R4 CU 31T 950 EXP;72;1
N120;R4 CU N120 1300 EXP;48;1
N120;R4 CU N120 1300 EXP;48;1
N150;R4 CU 4D 1300 EXP;40;1
N150;R4 CU 4D 1300 EXP;40;1
N150;R4 CU 4D 1400 EXP;40;1
N150;R4 CU 4D 1400 EXP;40;1
N150;R4 CU 4D 1500 EXP;40;1
N150;R4 CU 4D 1500 EXP;40;1
N200;R4 CU 8D 1500 EXP;32;1
N200;R4 CU 8D 1500 EXP;32;1
N200;R4 CU 8D 1600 EXP;32;1
N200;R4 CU 8D 1600 EXP;32;1
NS40;R4 CU NS40 35 EXP;200;1
N40;R4 CU N40 45 EXP;160;1
42;R4 CU 42 60 EXP;168;1
66;R4 CU 66 70 EXP;120;1
49;R4 CU 49 100 EXP;90;1
27;R4 CU 27 100 EXP;105;1
27;R4 CU 27 100 EXP;105;1
N150;R4 CU 4D 150 EXP;40;1
N150;R4 CU 4D 150 EXP;40;1
N200;R4 CU 8D 210 EXP;32;1
NS40;BT CL NS40ZL;200;1
NS40;BT CL NS40Z;200;1
N40;BT CL NS60L;160;1
N40;BT CL NS60;160;1
36;BT CL 36-54449;150;1
42;BT CL 42-55530;168;1
42;BT CL 42-55548;168;1
48;BT CL 48-57113;120;1
65A;BT CL 65A-55D23L;140;1
24;BT CL 24-NX110-5L;120;1
24;BT CL 24-NX110-5;120;1
24;BT CL 24-NX110-5L;120;1
24;BT CL 24-NX110-5;120;1
27;BT CL 27-NX120-7L;105;1
27;BT CL 27-NX120-7;105;1
27;BT CL 27-NX120-7L;105;1
27;BT CL 27-NX120-7;105;1
30H;BT CL 30H;72;1
31;BT CL 31S;72;1
4DLT;BT CL 4DLT-68032;40;1
4DLT;BT CL 4DLT-68032;40;1
N120;BT CL N120;48;1
N150;BT CL N150-160;40;1
N150;BT CL N150-160;40;1
N200;BT CL N200-210;32;1
42;BT AT 540L600;168;1
NS40;BT PE NS40ZL;200;1
NS40;BT PE NS40Z;200;1
NS40;BT PE NS40ZL ST;200;1
N40;BT PE NS60L;160;1
N40;BT PE NS60;160;1
36;BT PE 36-54449;150;1
42;BT PE 42-55530;168;1
42;BT PE 42-55548;168;1
48;BT PE 48-57113;120;1
65A;BT PE 65A-55D23L;140;1
24;BT PE 24-NX110-5L;120;1
24;BT PE 24-NX110-5;120;1
24;BT PE 24-NX110-5L;120;1
24;BT PE 24-NX110-5;120;1
27;BT PE 27-NX120-7L;105;1
27;BT PE 27-NX120-7;105;1
27;BT PE 27-NX120-7L;105;1
27;BT PE 27-NX120-7;105;1
30H;BT PE 30H;72;1
31;BT PE 31S;72;1
4DLT;BT PE 4DLT-68032;40;1
N120;BT PE N120;48;1
N150;BT PE N150-160;40;1
N150;BT PE N150-160;40;1
N200;BT PE N200-210;32;1
NS40;BT CO NS40ZL;200;1
NS40;BT CO NS40Z;200;1
N40;BT CO NS60L;160;1
N40;BT CO NS60;160;1
36;BT CO 36-54449;150;1
42;BT CO 42-55530;168;1
42;BT CO 42-55548;168;1
48;BT CO 48-57113;120;1
65A;BT CO 65A-55D23L;140;1
24;BT CO 24-NX110-5L;120;1
24;BT CO 24-NX110-5;120;1
24;BT CO 24-NX110-5L;120;1
24;BT CO 24-NX110-5;120;1
34;BT CO 34R-600;120;1
34;BT CO 34-600;120;1
27;BT CO 27-NX120-7L;105;1
27;BT CO 27-NX120-7;105;1
27;BT CO 27-NX120-7L;105;1
27;BT CO 27-NX120-7;105;1
30H;BT CO 30H;72;1
31;BT CO 31S;72;1
4DLT;BT CO 4DLT-68032;40;1
4DLT;BT CO 4DLT-68032;40;1
N120;BT CO N120;48;1
N150;BT CO N150-160;40;1
N150;BT CO N150-160;40;1
N200;BT CO N200-210;32;1
NS40;VC NS40 410;200;1
N40;VC NS60 410;160;1
42;VC 42 350;168;1
55;VC 55 400;168;1
34;VC 34 630;120;1
24;VC 24 400;120;1
24;VC 24I 400;120;1
24;VC 24 470;120;1
27;VC 27 560;105;1
27;VC 27I 560;105;1
GC2;VC GC2 215;80;1
NS40;AL NS40 NS-08;200;1
NS40;AL NS40I NS-08;200;1
NS40;AL NS40 NS-10;160;1
NS40;AL NS40I NS-10;160;1
N40;AL N40 TOY-11;160;1
N40;AL N40 TOY-13;160;1
N40;AL N40I TOY-13;160;1
36;AL 36 LB1-10;150;1
42;AL 42 W-09;168;1
42;AL 42I W-09;168;1
42;AL 42 W-10;168;1
42;AL 42I W-10;168;1
42;AL 42 W-13;140;1
42;AL 42I W-13;140;1
66;AL 66 MB-15;120;1
66;AL 66I MB-15;120;1
49;AL 49 MB-19;90;1
65A;AL 65A LD-11;120;1
24;AL 24 CH-09;120;1
24;AL 24I CH-09;120;1
24;AL 24 CH-11;120;1
24;AL 24I CH-11;120;1
24;AL 24 CH-13;120;1
24;AL 24I CH-13;120;1
24;AL 24 CH-13;120;1
24;AL 24I CH-13;120;1
27;AL 27 4x4-13;105;1
27;AL 27I 4x4-13;105;1
27;AL 27 4x4-13;105;1
27;AL 27I 4x4-13;105;1
27;AL 27 4x4-15;105;1
27;AL 27I 4x4-15;105;1
27;AL 27 4x4-15;105;1
27;AL 27I 4x4-15;105;1
31;AL 31 31H-17;72;1
31;AL 31 31H-19;72;1
N120;AL N120 P-19;48;1
N120;AL N120 P-19;48;1
N150;AL N150 P-23;40;1
N150;AL N150 P-23;40;1
N150;AL N150 P-24;40;1
N150;AL N150 P-24;40;1
N200;AL N200 P-31;32;1
N200;AL N200 P-31;32;1
N40;TR SE NS60L N40 45 EXP;128;1
N40;TR SE NS60L N40 55 EXP;128;1
65A;TR SE 55D23L 65A 60 EXP;96;1
24;TR SE E1100L 24 50 EXP;96;1
24;TR SE NS70L 24 70 EXP;96;1
24;TR SE NS70R 24 70 EXP;96;1
27;TR SE N70ZL 27 90 EXP;72;1
27;TR SE N70ZR 27 90 EXP;72;1
N40;TR NS60L N40 45 EXP;160;1
N40;TR NS60L N40 55 EXP;160;1
65A;TR 55D23L 65A 60 EXP;120;1
24;TR E1100L 24 50 EXP;120;1
24;TR NS70L 24 70 EXP;120;1
24;TR NS70R 24 70 EXP;120;1
27;TR N70ZL 27 90 EXP;105;1
27;TR N70ZR 27 90 EXP;105;1
GC2;AT GC2 225;80;1
NS40;BO HD40-11PL;200;1
NS40;BO HD40-11L;200;1
N40;BO HD60-11L;160;1
N40;BO HD60-13L;160;1
42;BO HD42-11L;168;1
42;BO HD42-13L;168;1
42;BO HD42-13R;168;1
24;BO HD24-13L;120;1
27;BO HD27-15L;105;1
27;BO HD27-15R;105;1
48;BO HD48-15L;120;1
N40;AP 22NF-700;160;1
36;AP 36FP-750;150;1
42;AP 22FA-850;140;1
42;AP 22XA-850;140;1
65A;AP 86-850;112;1
66;AP 41R-900;120;1
66;AP 41M-900;120;1
24;AP 24MR-850;120;1
24;AP 24M-850;120;1
24;AP 24MR-1100;120;1
24;AP 24M-1100;120;1
34;AP 34MR-1000;120;1
34;AP 34M-1000;120;1
49;AP 49-1100;90;1
F65;AP 65-1100;90;1
30H;AP 30HCT-1100;72;1
N150;AP 4D-1400;40;1
N200;AP 8D-1500;32;1
N120;EL N120 870 AMAR;60;1
N150;EL 4D 870 AMAR;50;1
N150;EL 4D 910 AMAR;50;1
4DLT;EL 4DLTI 900;50;1
N150;EL 4D 990;50;1
N200;EL 8D 1250;32;1