{
    "name": "edigital",
    "basic": {
        "accentColor": {
            "name": "Accent color",
            "value": "rgba(18, 98, 152, 1)",
            "editor": "colorPicker",
            "relatedProps": [
                {
                    "component": "editors",
                    "type": "switch",
                    "prop": "thumbColor"
                },
                {
                    "component": "slider",
                    "type": "slider",
                    "prop": "sliderThumbColor"
                },
                {
                    "component": "slider",
                    "type": "slider",
                    "prop": "tooltipBackgroundColor"
                },
                {
                    "component": "slider",
                    "type": "slider",
                    "prop": "tooltipBorderColor"
                }
            ]
        },
        "textColor": {
            "name": "Text color",
            "value": "rgba(85, 85, 85, 1)",
            "editor": "colorPicker",
            "relatedProps": [
                {
                    "component": "accordion",
                    "type": "accordion",
                    "prop": "itemTextColor"
                },
                {
                    "component": "grid",
                    "type": "grid",
                    "prop": "textColor"
                },
                {
                    "component": "grid",
                    "type": "grid",
                    "prop": "rowAlternationTextColor"
                },
                {
                    "component": "pivotgrid",
                    "type": "pivotgrid",
                    "prop": "cellTextColor"
                },
                {
                    "component": "button",
                    "type": "default",
                    "prop": "textColor"
                },
                {
                    "component": "editors",
                    "type": "textEditors",
                    "prop": "textColor"
                },
                {
                    "component": "editors",
                    "type": "combobox",
                    "prop": "multiItemTextColor"
                },
                {
                    "component": "editors",
                    "type": "switch",
                    "prop": "onLabelTextColor"
                },
                {
                    "component": "editors",
                    "type": "switch",
                    "prop": "offLabelTextColor"
                },
                {
                    "component": "editors",
                    "type": "calendar",
                    "prop": "currentMonthTextColor"
                },
                {
                    "component": "overlays",
                    "type": "tooltip",
                    "prop": "textColor"
                },
                {
                    "component": "overlays",
                    "type": "overlays",
                    "prop": "contentTextColor"
                },
                {
                    "component": "list",
                    "type": "list",
                    "prop": "textColor"
                },
                {
                    "component": "menu",
                    "type": "menu",
                    "prop": "textColor"
                },
                {
                    "component": "menu",
                    "type": "menu",
                    "prop": "dropdownTextColor"
                },
                {
                    "component": "navbar",
                    "type": "navbar",
                    "prop": "itemTextColor"
                },
                {
                    "component": "progressbar",
                    "type": "progressbar",
                    "prop": "labelColor"
                },
                {
                    "component": "tabs",
                    "type": "tabs",
                    "prop": "contentTextColor"
                }
            ]
        },
        "backgroundColor": {
            "name": "Background color",
            "value": "rgba(254, 253, 253, 1)",
            "editor": "colorPicker",
            "relatedProps": [
                {
                    "component": "accordion",
                    "type": "accordion",
                    "prop": "itemBackgroundColor"
                },
                {
                    "component": "grid",
                    "type": "grid",
                    "prop": "backgroundColor"
                },
                {
                    "component": "grid",
                    "type": "grid",
                    "prop": "rowBackgroundColor"
                },
                {
                    "component": "grid",
                    "type": "grid",
                    "prop": "groupRowBackgroundColor"
                },
                {
                    "component": "pivotgrid",
                    "type": "pivotgrid",
                    "prop": "cellBackgroundColor"
                },
                {
                    "component": "button",
                    "type": "default",
                    "prop": "backgroundColor"
                },
                {
                    "component": "editors",
                    "type": "textEditors",
                    "prop": "backgroundColor"
                },
                {
                    "component": "editors",
                    "type": "combobox",
                    "prop": "multiItemBackgroundColor"
                },
                {
                    "component": "editors",
                    "type": "switch",
                    "prop": "onLabelBackgroundColor"
                },
                {
                    "component": "editors",
                    "type": "switch",
                    "prop": "offLabelBackgroundColor"
                },
                {
                    "component": "editors",
                    "type": "calendar",
                    "prop": "backgroundColor"
                },
                {
                    "component": "editors",
                    "type": "fileUploader",
                    "prop": "backgroundColor"
                },
                {
                    "component": "overlays",
                    "type": "overlays",
                    "prop": "contentBackgroundColor"
                },
                {
                    "component": "overlays",
                    "type": "tooltip",
                    "prop": "backgroundColor"
                },
                {
                    "component": "list",
                    "type": "list",
                    "prop": "backgroundColor"
                },
                {
                    "component": "menu",
                    "type": "menu",
                    "prop": "backgroundColor"
                },
                {
                    "component": "menu",
                    "type": "menu",
                    "prop": "dropdownBackgroundColor"
                },
                {
                    "component": "navbar",
                    "type": "navbar",
                    "prop": "itemBackgroundColor"
                },
                {
                    "component": "progressbar",
                    "type": "progressbar",
                    "prop": "barBackgroundColor"
                },
                {
                    "component": "slider",
                    "type": "slider",
                    "prop": "sliderBarBackgroundColor"
                },
                {
                    "component": "tabs",
                    "type": "tabs",
                    "prop": "contentBackgroundColor"
                }
            ]
        },
        "headerTextColor": {
            "name": "Header text color",
            "value": "rgba(255, 255, 255, 1)",
            "editor": "colorPicker",
            "relatedProps": [
                {
                    "component": "grid",
                    "type": "grid",
                    "prop": "headerTextColor"
                },
                {
                    "component": "pivotgrid",
                    "type": "pivotgrid",
                    "prop": "headerTextColor"
                },
                {
                    "component": "editors",
                    "type": "calendar",
                    "prop": "headerTextColor"
                },
                {
                    "component": "accordion",
                    "type": "accordion",
                    "prop": "itemTitleTextColor"
                },
                {
                    "component": "overlays",
                    "type": "popup",
                    "prop": "headerTextColor"
                },
                {
                    "component": "list",
                    "type": "list",
                    "prop": "headerTextColor"
                },
                {
                    "component": "tabs",
                    "type": "tabs",
                    "prop": "tabTextColor"
                },
                {
                    "component": "scheduler",
                    "type": "scheduler",
                    "prop": "headerTextColor"
                }
            ]
        },
        "headerBackgroundColor": {
            "name": "Header background color",
            "value": "rgba(18, 98, 152, 1)",
            "editor": "colorPicker",
            "relatedProps": [
                {
                    "component": "grid",
                    "type": "grid",
                    "prop": "headerBackgroundColor"
                },
                {
                    "component": "pivotgrid",
                    "type": "pivotgrid",
                    "prop": "headerBackgroundColor"
                },
                {
                    "component": "editors",
                    "type": "calendar",
                    "prop": "headerBackgroundColor"
                },
                {
                    "component": "overlays",
                    "type": "popup",
                    "prop": "headerBackgroundColor"
                },
                {
                    "component": "list",
                    "type": "list",
                    "prop": "headerBackgroundColor"
                },
                {
                    "component": "accordion",
                    "type": "accordion",
                    "prop": "itemTitleBackgroundColor"
                },
                {
                    "component": "scheduler",
                    "type": "scheduler",
                    "prop": "headerBackgroundColor"
                },
                {
                    "component": "tabs",
                    "type": "tabs",
                    "prop": "headerBackgroundColor"
                }
            ]
        },
        "borderColor": {
            "name": "Border color",
            "value": "rgba(221, 221, 221, 1)",
            "editor": "colorPicker",
            "relatedProps": [
                {
                    "component": "editors",
                    "type": "textEditors",
                    "prop": "borderColor"
                },
                {
                    "component": "scheduler",
                    "type": "scheduler",
                    "prop": "headerBorderColor"
                },
                {
                    "component": "scheduler",
                    "type": "scheduler",
                    "prop": "borderColor"
                },
                {
                    "component": "accordion",
                    "type": "accordion",
                    "prop": "itemTitleBorderColor"
                },
                {
                    "component": "slider",
                    "type": "slider",
                    "prop": "tooltipBorderColor"
                },
                {
                    "component": "tabs",
                    "type": "tabs",
                    "prop": "borderColor"
                }
            ]
        },
        "borderRadius": {
            "name": "Border radius",
            "value": "4px",
            "editor": "input",
            "relatedProps": [
                {
                    "component": "editors",
                    "type": "textEditors",
                    "prop": "borderRadius"
                }
            ]
        },
        "fontFamily": {
            "name": "Font family",
            "value": "\"Roboto\", \"Helvetice Neue\", \"Helvetica\", \"Arial\", sans-serif",
            "editor": "input"
        },
        "fontSize": {
            "name": "Font size",
            "value": "14px",
            "editor": "input"
        },
        "hoveredStateTextColor": {
            "name": "Hovered state text color",
            "value": "rgba(255, 255, 255, 1)",
            "editor": "colorPicker",
            "relatedProps": [
                {
                    "component": "button",
                    "type": "default",
                    "prop": "hoveredStateTextColor"
                },
                {
                    "component": "accordion",
                    "type": "accordion",
                    "prop": "itemTitleHoveredTextColor"
                },
                {
                    "component": "navbar",
                    "type": "navbar",
                    "prop": "hoveredItemTextColor"
                },
                {
                    "component": "tabs",
                    "type": "tabs",
                    "prop": "hoveredTabTextColor"
                }
            ]
        },
        "hoveredStateBackgroundColor": {
            "name": "Hovered state background color",
            "value": "rgba(0, 119, 190, 1)",
            "editor": "colorPicker",
            "relatedProps": [
                {
                    "component": "button",
                    "type": "default",
                    "prop": "hoveredStateBackgroundColor"
                },
                {
                    "component": "accordion",
                    "type": "accordion",
                    "prop": "itemTitleHoveredBackgroundColor"
                },
                {
                    "component": "navbar",
                    "type": "navbar",
                    "prop": "hoveredItemBackgroundColor"
                },
                {
                    "component": "tabs",
                    "type": "tabs",
                    "prop": "hoveredTabBackgroundColor"
                },
                {
                    "component": "slider",
                    "type": "slider",
                    "prop": "arrowsHoveredBackgroundColor"
                }
            ]
        },
        "hoveredStateContentTextColor": {
            "name": "Hovered content text color",
            "value": "rgba(0, 119, 190, 1)",
            "editor": "colorPicker",
            "relatedProps": [
                {
                    "component": "grid",
                    "type": "grid",
                    "prop": "hoveredRowTextColor"
                },
                {
                    "component": "editors",
                    "type": "calendar",
                    "prop": "hoveredCellTextColor"
                },
                {
                    "component": "list",
                    "type": "list",
                    "prop": "hoveredItemStateTextColor"
                },
                {
                    "component": "menu",
                    "type": "menu",
                    "prop": "hoveredItemColor"
                },
                {
                    "component": "treeview",
                    "type": "treeview",
                    "prop": "hoveredTreeItemColor"
                }
            ]
        },
        "hoveredStateContentBackgroundColor": {
            "name": "Hovered content background color",
            "value": "rgba(0, 0, 0, 0.07)",
            "editor": "colorPicker",
            "relatedProps": [
                {
                    "component": "grid",
                    "type": "grid",
                    "prop": "hoveredRowBackgroundColor"
                },
                {
                    "component": "editors",
                    "type": "calendar",
                    "prop": "hoveredCellBackgroundColor"
                },
                {
                    "component": "scheduler",
                    "type": "scheduler",
                    "prop": "hoveredCellBorderColor"
                },
                {
                    "component": "scheduler",
                    "type": "scheduler",
                    "prop": "hoveredCellBackgroundColor"
                },
                {
                    "component": "list",
                    "type": "list",
                    "prop": "hoveredItemStateBackgroundColor"
                },
                {
                    "component": "menu",
                    "type": "menu",
                    "prop": "hoveredItemBackgroundColor"
                },
                {
                    "component": "treeview",
                    "type": "treeview",
                    "prop": "hoveredTreeItemBackgroundColor"
                }
            ]
        },
        "focusedStateTextColor": {
            "name": "Focused state text color",
            "value": "rgba(255, 255, 255, 1)",
            "editor": "colorPicker",
            "relatedProps": [
                {
                    "component": "button",
                    "type": "default",
                    "prop": "focusedStateTextColor"
                }
            ]
        },
        "focusedStateBackgroundColor": {
            "name": "Focused state background color",
            "value": "rgba(18, 98, 152, 1)",
            "editor": "colorPicker",
            "relatedProps": [
                {
                    "component": "button",
                    "type": "default",
                    "prop": "focusedStateBackgroundColor"
                },
                {
                    "component": "editors",
                    "type": "textEditors",
                    "prop": "focusedBorderColor"
                },
                {
                    "component": "accordion",
                    "type": "accordion",
                    "prop": "itemTitleFocusedBorderColor"
                },
                {
                    "component": "accordion",
                    "type": "accordion",
                    "prop": "itemFocusedBorderColor"
                },
                {
                    "component": "slider",
                    "type": "slider",
                    "prop": "focusedBorderColor"
                }
            ]
        },
        "activeStateTextColor": {
            "name": "Active state text color",
            "value": "rgba(18, 98, 152, 1)",
            "editor": "colorPicker",
            "relatedProps": [
                {
                    "component": "grid",
                    "type": "grid",
                    "prop": "selectedRowTextColor"
                },
                {
                    "component": "pivotgrid",
                    "type": "pivotgrid",
                    "prop": "selectedCellTextColor"
                },
                {
                    "component": "accordion",
                    "type": "accordion",
                    "prop": "itemTitleSelectedTextColor"
                },
                {
                    "component": "button",
                    "type": "default",
                    "prop": "activeStateTextColor"
                },
                {
                    "component": "editors",
                    "type": "calendar",
                    "prop": "selectedCellTextColor"
                },
                {
                    "component": "list",
                    "type": "list",
                    "prop": "selectedItemStateTextColor"
                },
                {
                    "component": "menu",
                    "type": "menu",
                    "prop": "selectedItemColor"
                },
                {
                    "component": "navbar",
                    "type": "navbar",
                    "prop": "selectedItemTextColor"
                },
                {
                    "component": "tabs",
                    "type": "tabs",
                    "prop": "selectedTabBackgroundColor"
                },
                {
                    "component": "treeview",
                    "type": "treeview",
                    "prop": "selectedTreeItemColor"
                }
            ]
        },
        "activeStateBackgroundColor": {
            "name": "Active state background color",
            "value": "rgba(18, 98, 152, 0.21)",
            "editor": "colorPicker",
            "relatedProps": [
                {
                    "component": "grid",
                    "type": "grid",
                    "prop": "selectedRowBackgroundColor"
                },
                {
                    "component": "grid",
                    "type": "grid",
                    "prop": "selectedRowBorderColor"
                },
                {
                    "component": "pivotgrid",
                    "type": "pivotgrid",
                    "prop": "selectedCellBackgroundColor"
                },
                {
                    "component": "accordion",
                    "type": "accordion",
                    "prop": "itemTitleSelectedBorderColor"
                },
                {
                    "component": "accordion",
                    "type": "accordion",
                    "prop": "itemTitleSelectedBackgroundColor"
                },
                {
                    "component": "button",
                    "type": "default",
                    "prop": "activeStateBackgroundColor"
                },
                {
                    "component": "scheduler",
                    "type": "scheduler",
                    "prop": "selectedCellBackgroundColor"
                },
                {
                    "component": "scheduler",
                    "type": "scheduler",
                    "prop": "selectedCellBorderColor"
                },
                {
                    "component": "editors",
                    "type": "calendar",
                    "prop": "selectedCellBackgroundColor"
                },
                {
                    "component": "list",
                    "type": "list",
                    "prop": "selectedItemStateBackgroundColor"
                },
                {
                    "component": "menu",
                    "type": "menu",
                    "prop": "selectedItemBackgroundColor"
                },
                {
                    "component": "menu",
                    "type": "menu",
                    "prop": "selectedItemBorderColor"
                },
                {
                    "component": "navbar",
                    "type": "navbar",
                    "prop": "selectedItemBackgroundColor"
                },
                {
                    "component": "tabs",
                    "type": "tabs",
                    "prop": "selectedTabTextColor"
                },
                {
                    "component": "tabs",
                    "type": "tabs",
                    "prop": "selectedTabBottomBorderColor"
                },
                {
                    "component": "treeview",
                    "type": "treeview",
                    "prop": "selectedTreeItemBackgroundColor"
                },
                {
                    "component": "progressbar",
                    "type": "progressbar",
                    "prop": "selectedRangeBackgroundColor"
                },
                {
                    "component": "slider",
                    "type": "slider",
                    "prop": "selectedSliderBackgroundColor"
                },
                {
                    "component": "slider",
                    "type": "slider",
                    "prop": "arrowsSelectedBackgroundColor"
                }
            ]
        },
        "arrowColor": {
            "name": "Arrow color",
            "values": [
                "dark",
                "white"
            ],
            "value": "dark",
            "editor": "dropdownlist"
        },
        "arrowHoveredColor": {
            "name": "Arrow hovered color",
            "values": [
                "dark",
                "white"
            ],
            "value": "white",
            "editor": "dropdownlist"
        },
        "arrowSelectedColor": {
            "name": "Arrow selected color",
            "values": [
                "dark",
                "white"
            ],
            "value": "white",
            "editor": "dropdownlist"
        }
    },
    "advanced": {
        "accordion": {
            "name": "Accordion",
            "visible": true,
            "types": {
                "accordion": {
                    "itemTitleTextColor": {
                        "name": "Item title text color",
                        "value": "rgba(255, 255, 255, 1)",
                        "editor": "colorPicker"
                    },
                    "itemTitleBackgroundColor": {
                        "name": "Item title background color",
                        "value": "rgba(18, 98, 152, 1)",
                        "editor": "colorPicker"
                    },
                    "itemTitleBorderColor": {
                        "name": "Item title border color",
                        "value": "rgba(224, 224, 224, 1)",
                        "editor": "colorPicker"
                    },
                    "itemTitleHoveredTextColor": {
                        "name": "Item title hovered text color",
                        "value": "rgba(255, 255, 255, 1)",
                        "editor": "colorPicker"
                    },
                    "itemTitleHoveredBackgroundColor": {
                        "name": "Item title hovered background color",
                        "value": "rgba(0, 119, 190, 1)",
                        "editor": "colorPicker"
                    },
                    "itemTitleHoveredBorderColor": {
                        "name": "Item title hovered border color",
                        "value": "rgba(246, 246, 246, 1)",
                        "editor": "colorPicker"
                    },
                    "itemTitleSelectedTextColor": {
                        "name": "Item title selected text color",
                        "value": "rgba(18, 98, 152, 1)",
                        "editor": "colorPicker"
                    },
                    "itemTitleSelectedBackgroundColor": {
                        "name": "Item title selected background color",
                        "value": "rgba(18, 98, 152, 0.21)",
                        "editor": "colorPicker"
                    },
                    "itemTitleSelectedBorderColor": {
                        "name": "Item title selected border color",
                        "value": "rgba(18, 98, 152, 0.21)",
                        "editor": "colorPicker"
                    },
                    "itemTitleFocusedBorderColor": {
                        "name": "Item title focused border color",
                        "value": "rgba(18, 98, 152, 1)",
                        "editor": "colorPicker"
                    },
                    "itemTextColor": {
                        "name": "Item text color",
                        "value": "rgba(85, 85, 85, 1)",
                        "editor": "colorPicker"
                    },
                    "itemBackgroundColor": {
                        "name": "Item background color",
                        "value": "rgba(254, 253, 253, 1)",
                        "editor": "colorPicker"
                    },
                    "itemFocusedTextColor": {
                        "name": "Item focused text color",
                        "value": "rgba(224, 224, 224, 1)",
                        "editor": "colorPicker"
                    },
                    "itemFocusedBackgroundColor": {
                        "name": "Item focused background color",
                        "value": "rgba(253, 253, 253, 1)",
                        "editor": "colorPicker"
                    },
                    "itemFocusedBorderColor": {
                        "name": "Item focused border color",
                        "value": "rgba(18, 98, 152, 1)",
                        "editor": "colorPicker"
                    },
                    "arrowColor": {
                        "name": "Arrow color",
                        "values": [
                            "dark",
                            "white"
                        ],
                        "value": "dark",
                        "editor": "dropdownlist"
                    },
                    "arrowHoveredColor": {
                        "name": "Arrow hovered color",
                        "values": [
                            "dark",
                            "white"
                        ],
                        "value": "white",
                        "editor": "dropdownlist"
                    },
                    "arrowSelectedColor": {
                        "name": "Arrow selected color",
                        "values": [
                            "dark",
                            "white"
                        ],
                        "value": "white",
                        "editor": "dropdownlist"
                    }
                }
            }
        },
        "button": {
            "name": "Button",
            "visible": true,
            "types": {
                "default": {
                    "name": "Default type",
                    "textColor": {
                        "name": "Text color",
                        "value": "rgba(85, 85, 85, 1)",
                        "editor": "colorPicker"
                    },
                    "backgroundColor": {
                        "name": "Background color",
                        "value": "rgba(254, 253, 253, 1)",
                        "editor": "colorPicker"
                    },
                    "hoveredStateTextColor": {
                        "name": "Hovered state text color",
                        "value": "rgba(255, 255, 255, 1)",
                        "editor": "colorPicker"
                    },
                    "hoveredStateBackgroundColor": {
                        "name": "Hovered state background color",
                        "value": "rgba(0, 119, 190, 1)",
                        "editor": "colorPicker"
                    },
                    "focusedStateTextColor": {
                        "name": "Focused state text color",
                        "value": "rgba(255, 255, 255, 1)",
                        "editor": "colorPicker"
                    },
                    "focusedStateBackgroundColor": {
                        "name": "Focused state background color",
                        "value": "rgba(18, 98, 152, 1)",
                        "editor": "colorPicker"
                    },
                    "activeStateTextColor": {
                        "name": "Active state text color",
                        "value": "rgba(18, 98, 152, 1)",
                        "editor": "colorPicker"
                    },
                    "activeStateBackgroundColor": {
                        "name": "Active state background color",
                        "value": "rgba(18, 98, 152, 0.21)",
                        "editor": "colorPicker"
                    }
                },
                "primary": {
                    "name": "Primary Type",
                    "textColor": {
                        "name": "Text color",
                        "value": "rgba(0, 119, 190, 1)",
                        "editor": "colorPicker"
                    },
                    "backgroundColor": {
                        "name": "Background color",
                        "value": "rgba(255, 255, 255, 1)",
                        "editor": "colorPicker"
                    },
                    "hoveredStateTextColor": {
                        "name": "Hovered state text color",
                        "value": "rgba(255, 255, 255, 1)",
                        "editor": "colorPicker"
                    },
                    "hoveredStateBackgroundColor": {
                        "name": "Hovered state background color",
                        "value": "rgba(0, 119, 190, 1)",
                        "editor": "colorPicker"
                    },
                    "focusedStateTextColor": {
                        "name": "Focused state text color",
                        "value": "rgba(255, 255, 255, 1)",
                        "editor": "colorPicker"
                    },
                    "focusedStateBackgroundColor": {
                        "name": "Focused state background color",
                        "value": "rgba(0, 119, 190, 1)",
                        "editor": "colorPicker"
                    },
                    "activeStateTextColor": {
                        "name": "Active state text color",
                        "value": "rgba(255, 255, 255, 1)",
                        "editor": "colorPicker"
                    },
                    "activeStateBackgroundColor": {
                        "name": "Active state background color",
                        "value": "rgba(0, 119, 190, 1)",
                        "editor": "colorPicker"
                    }
                },
                "success": {
                    "name": "Success Type",
                    "textColor": {
                        "name": "Text color",
                        "value": "rgba(92, 184, 92, 1)",
                        "editor": "colorPicker"
                    },
                    "backgroundColor": {
                        "name": "Background color",
                        "value": "rgba(255, 255, 255, 1)",
                        "editor": "colorPicker"
                    },
                    "hoveredStateTextColor": {
                        "name": "Hovered state text color",
                        "value": "rgba(255, 255, 255, 1)",
                        "editor": "colorPicker"
                    },
                    "hoveredStateBackgroundColor": {
                        "name": "Hovered state background color",
                        "value": "rgba(92, 184, 92, 1)",
                        "editor": "colorPicker"
                    },
                    "focusedStateTextColor": {
                        "name": "Focused state text color",
                        "value": "rgba(255, 255, 255, 1)",
                        "editor": "colorPicker"
                    },
                    "focusedStateBackgroundColor": {
                        "name": "Focused state background color",
                        "value": "rgba(92, 184, 92, 1)",
                        "editor": "colorPicker"
                    },
                    "activeStateTextColor": {
                        "name": "Active state text color",
                        "value": "rgba(255, 255, 255, 1)",
                        "editor": "colorPicker"
                    },
                    "activeStateBackgroundColor": {
                        "name": "Active state background color",
                        "value": "rgba(92, 184, 92, 1)",
                        "editor": "colorPicker"
                    }
                },
                "warning": {
                    "name": "Warning Type",
                    "textColor": {
                        "name": "Text color",
                        "value": "rgba(240, 173, 78, 1)",
                        "editor": "colorPicker"
                    },
                    "backgroundColor": {
                        "name": "Background color",
                        "value": "rgba(255, 255, 255, 1)",
                        "editor": "colorPicker"
                    },
                    "hoveredStateTextColor": {
                        "name": "Hovered state text color",
                        "value": "rgba(255, 255, 255, 1)",
                        "editor": "colorPicker"
                    },
                    "hoveredStateBackgroundColor": {
                        "name": "Hovered state background color",
                        "value": "rgba(240, 173, 78, 1)",
                        "editor": "colorPicker"
                    },
                    "focusedStateTextColor": {
                        "name": "Focused state text color",
                        "value": "rgba(255, 255, 255, 1)",
                        "editor": "colorPicker"
                    },
                    "focusedStateBackgroundColor": {
                        "name": "Focused state background color",
                        "value": "rgba(240, 173, 78, 1)",
                        "editor": "colorPicker"
                    },
                    "activeStateTextColor": {
                        "name": "Active state text color",
                        "value": "rgba(255, 255, 255, 1)",
                        "editor": "colorPicker"
                    },
                    "activeStateBackgroundColor": {
                        "name": "Active state background color",
                        "value": "rgba(240, 173, 78, 1)",
                        "editor": "colorPicker"
                    }
                },
                "danger": {
                    "name": "Danger Type",
                    "textColor": {
                        "name": "Text color",
                        "value": "rgba(217, 83, 79, 1)",
                        "editor": "colorPicker"
                    },
                    "backgroundColor": {
                        "name": "Background color",
                        "value": "rgba(255, 255, 255, 1)",
                        "editor": "colorPicker"
                    },
                    "hoveredStateTextColor": {
                        "name": "Hovered state text color",
                        "value": "rgba(255, 255, 255, 1)",
                        "editor": "colorPicker"
                    },
                    "hoveredStateBackgroundColor": {
                        "name": "Hovered state background color",
                        "value": "rgba(217, 83, 79, 1)",
                        "editor": "colorPicker"
                    },
                    "focusedStateTextColor": {
                        "name": "Focused state text color",
                        "value": "rgba(255, 255, 255, 1)",
                        "editor": "colorPicker"
                    },
                    "focusedStateBackgroundColor": {
                        "name": "Focused state background color",
                        "value": "rgba(217, 83, 79, 1)",
                        "editor": "colorPicker"
                    },
                    "activeStateTextColor": {
                        "name": "Active state text color",
                        "value": "rgba(255, 255, 255, 1)",
                        "editor": "colorPicker"
                    },
                    "activeStateBackgroundColor": {
                        "name": "Active state background color",
                        "value": "rgba(217, 83, 79, 1)",
                        "editor": "colorPicker"
                    }
                },
                "info": {
                    "name": "Info type",
                    "textColor": {
                        "name": "Text color",
                        "value": "rgba(91, 192, 222, 1)",
                        "editor": "colorPicker"
                    },
                    "backgroundColor": {
                        "name": "Background color",
                        "value": "rgba(255, 255, 255, 1)",
                        "editor": "colorPicker"
                    },
                    "hoveredStateTextColor": {
                        "name": "Hovered state text color",
                        "value": "rgba(255, 255, 255, 1)",
                        "editor": "colorPicker"
                    },
                    "hoveredStateBackgroundColor": {
                        "name": "Hovered state background color",
                        "value": "rgba(91, 192, 222, 1)",
                        "editor": "colorPicker"
                    },
                    "focusedStateTextColor": {
                        "name": "Focused state text color",
                        "value": "rgba(255, 255, 255, 1)",
                        "editor": "colorPicker"
                    },
                    "focusedStateBackgroundColor": {
                        "name": "Focused state background color",
                        "value": "rgba(91, 192, 222, 1)",
                        "editor": "colorPicker"
                    },
                    "activeStateTextColor": {
                        "name": "Active state text color",
                        "value": "rgba(255, 255, 255, 1)",
                        "editor": "colorPicker"
                    },
                    "activeStateBackgroundColor": {
                        "name": "Active state background color",
                        "value": "rgba(91, 192, 222, 1)",
                        "editor": "colorPicker"
                    }
                }
            }
        },
        "editors": {
            "name": "Editors",
            "visible": true,
            "types": {
                "textEditors": {
                    "name": "Text Editors",
                    "textColor": {
                        "name": "Text color",
                        "value": "rgba(85, 85, 85, 1)",
                        "editor": "colorPicker"
                    },
                    "backgroundColor": {
                        "name": "Background color",
                        "value": "rgba(254, 253, 253, 1)",
                        "editor": "colorPicker"
                    },
                    "borderColor": {
                        "name": "Border color",
                        "value": "rgba(221, 221, 221, 1)",
                        "editor": "colorPicker"
                    },
                    "borderRadius": {
                        "name": "Border radius",
                        "value": "4px",
                        "editor": "input"
                    },
                    "focusedBorderColor": {
                        "name": "Focused border color",
                        "value": "rgba(18, 98, 152, 1)",
                        "editor": "colorPicker"
                    }
                },
                "datеtimeinput": {
                    "name": "DateTime Input",
                    "calendarIconColor": {
                        "name": "Calendar icon color",
                        "values": [
                            "dark",
                            "white"
                        ],
                        "value": "dark",
                        "editor": "dropdownlist"
                    },
                    "calendarIconSelectedColor": {
                        "name": "Calendar icon selected color",
                        "values": [
                            "dark",
                            "white"
                        ],
                        "value": "white",
                        "editor": "dropdownlist"
                    }
                },
                "combobox": {
                    "name": "ComboBox",
                    "multiItemTextColor": {
                        "name": "Multi item text color",
                        "value": "rgba(85, 85, 85, 1)",
                        "editor": "colorPicker"
                    },
                    "multiItemBackgroundColor": {
                        "name": "Multi item background color",
                        "value": "rgba(254, 253, 253, 1)",
                        "editor": "colorPicker"
                    }
                },
                "calendar": {
                    "name": "Calendar",
                    "headerTextColor": {
                        "name": "Header text color",
                        "value": "rgba(255, 255, 255, 1)",
                        "editor": "colorPicker"
                    },
                    "headerBackgroundColor": {
                        "name": "Header background color",
                        "value": "rgba(18, 98, 152, 1)",
                        "editor": "colorPicker"
                    },
                    "arrowsColor": {
                        "name": "Arrows color",
                        "values": [
                            "dark",
                            "white"
                        ],
                        "value": "dark",
                        "editor": "dropdownlist"
                    },
                    "backgroundColor": {
                        "name": "Background color",
                        "value": "rgba(254, 253, 253, 1)",
                        "editor": "colorPicker"
                    },
                    "todayCellTextColor": {
                        "name": "Today cell text color",
                        "value": "rgba(137, 137, 137, 1)",
                        "editor": "colorPicker"
                    },
                    "todayCellBackgroundColor": {
                        "name": "Today cell background color",
                        "value": "rgba(255, 255, 219, 1)",
                        "editor": "colorPicker"
                    },
                    "todayCellBorderColor": {
                        "name": "Today cell border color",
                        "value": "rgba(253, 192, 102, 1)",
                        "editor": "colorPicker"
                    },
                    "currentMonthTextColor": {
                        "name": "Current month text color",
                        "value": "rgba(85, 85, 85, 1)",
                        "editor": "colorPicker"
                    },
                    "otherMonthTextColor": {
                        "name": "Other month text color",
                        "value": "rgba(137, 137, 137, 1)",
                        "editor": "colorPicker"
                    },
                    "hoveredCellTextColor": {
                        "name": "Hovered cell text color",
                        "value": "rgba(0, 119, 190, 1)",
                        "editor": "colorPicker"
                    },
                    "hoveredCellBackgroundColor": {
                        "name": "Hovered cell background color",
                        "value": "rgba(0, 0, 0, 0.07)",
                        "editor": "colorPicker"
                    },
                    "selectedCellTextColor": {
                        "name": "Selected cell text color",
                        "value": "rgba(18, 98, 152, 1)",
                        "editor": "colorPicker"
                    },
                    "selectedCellBackgroundColor": {
                        "name": "Selected cell background color",
                        "value": "rgba(18, 98, 152, 0.21)",
                        "editor": "colorPicker"
                    }
                },
                "switch": {
                    "name": "Switch",
                    "thumbColor": {
                        "name": "Thumb color",
                        "value": "rgba(18, 98, 152, 1)",
                        "editor": "colorPicker"
                    },
                    "onLabelTextColor": {
                        "name": "'ON' label text color",
                        "value": "rgba(85, 85, 85, 1)",
                        "editor": "colorPicker"
                    },
                    "onLabelBackgroundColor": {
                        "name": "'ON' label background color",
                        "value": "rgba(254, 253, 253, 1)",
                        "editor": "colorPicker"
                    },
                    "offLabelTextColor": {
                        "name": "'OFF' label text color",
                        "value": "rgba(85, 85, 85, 1)",
                        "editor": "colorPicker"
                    },
                    "offLabelBackgroundColor": {
                        "name": "'OFF' label background color",
                        "value": "rgba(254, 253, 253, 1)",
                        "editor": "colorPicker"
                    }
                },
                "fileUploader": {
                    "name": "File Uploader",
                    "backgroundColor": {
                        "name": "Background color",
                        "value": "rgba(254, 253, 253, 1)",
                        "editor": "colorPicker"
                    },
                    "filenameTextColor": {
                        "name": "Filename text color",
                        "value": "rgba(85, 85, 85, 1)",
                        "editor": "colorPicker"
                    }
                }
            }
        },
        "grid": {
            "name": "Grid / TreeGrid",
            "visible": true,
            "types": {
                "grid": {
                    "textColor": {
                        "name": "Text color",
                        "value": "rgba(85, 85, 85, 1)",
                        "editor": "colorPicker"
                    },
                    "backgroundColor": {
                        "name": "Background color",
                        "value": "rgba(254, 253, 253, 1)",
                        "editor": "colorPicker"
                    },
                    "headerTextColor": {
                        "name": "Header text color",
                        "value": "rgba(255, 255, 255, 1)",
                        "editor": "colorPicker"
                    },
                    "headerTextWeight": {
                        "name": "Header text weight",
                        "values": [
                            "normal",
                            "bold"
                        ],
                        "value": "normal",
                        "editor": "dropdownlist"
                    },
                    "headerBackgroundColor": {
                        "name": "Header background color",
                        "value": "rgba(18, 98, 152, 1)",
                        "editor": "colorPicker"
                    },
                    "rowTextColor": {
                        "name": "Row text color",
                        "value": "rgba(85, 85, 85, 1)",
                        "editor": "colorPicker"
                    },
                    "rowBackgroundColor": {
                        "name": "Row background color",
                        "value": "rgba(254, 253, 253, 1)",
                        "editor": "colorPicker"
                    },
                    "rowAlternationTextColor": {
                        "name": "Row alternation text color",
                        "value": "rgba(85, 85, 85, 1)",
                        "editor": "colorPicker"
                    },
                    "rowAlternationBackgroundColor": {
                        "name": "Row alternation background color",
                        "value": "rgba(254, 253, 253, 0.5)",
                        "editor": "colorPicker"
                    },
                    "hoveredRowTextColor": {
                        "name": "Hovered row text color",
                        "value": "rgba(0, 119, 190, 1)",
                        "editor": "colorPicker"
                    },
                    "hoveredRowBackgroundColor": {
                        "name": "Hovered row background color",
                        "value": "rgba(0, 0, 0, 0.07)",
                        "editor": "colorPicker"
                    },
                    "selectedRowTextColor": {
                        "name": "Selected row text color",
                        "value": "rgba(18, 98, 152, 1)",
                        "editor": "colorPicker"
                    },
                    "selectedRowBackgroundColor": {
                        "name": "Selected row background color",
                        "value": "rgba(18, 98, 152, 0.21)",
                        "editor": "colorPicker"
                    },
                    "selectedRowBorderColor": {
                        "name": "Selected row border color",
                        "value": "rgba(18, 98, 152, 0.21)",
                        "editor": "colorPicker"
                    },
                    "groupRowTextColor": {
                        "name": "Group row text color",
                        "value": "rgba(85, 85, 85, 1)",
                        "editor": "colorPicker"
                    },
                    "groupRowBackgroundColor": {
                        "name": "Group row background color",
                        "value": "rgba(254, 253, 253, 1)",
                        "editor": "colorPicker"
                    },
                    "editorTextColor": {
                        "name": "Editor text color",
                        "value": "rgba(85, 85, 85, 1)",
                        "editor": "colorPicker"
                    },
                    "editorBackgroundColor": {
                        "name": "Editor background color",
                        "value": "rgba(255, 255, 255, 1)",
                        "editor": "colorPicker"
                    },
                    "pinnedCellsBackgroundColor": {
                        "name": "Pinned cells background color",
                        "value": "rgba(229, 229, 229, 1)",
                        "editor": "colorPicker"
                    },
                    "arrowColor": {
                        "name": "Arrow color",
                        "values": [
                            "dark",
                            "white"
                        ],
                        "value": "dark",
                        "editor": "dropdownlist"
                    },
                    "arrowHoveredColor": {
                        "name": "Arrow hovered color",
                        "values": [
                            "dark",
                            "white"
                        ],
                        "value": "white",
                        "editor": "dropdownlist"
                    },
                    "arrowSelectedColor": {
                        "name": "Arrow selected color",
                        "values": [
                            "dark",
                            "white"
                        ],
                        "value": "white",
                        "editor": "dropdownlist"
                    },
                    "headerArrowColor": {
                        "name": "Header arrow color",
                        "values": [
                            "dark",
                            "white"
                        ],
                        "value": "dark",
                        "editor": "dropdownlist"
                    },
                    "groupsArrowColor": {
                        "name": "Groups arrow color",
                        "values": [
                            "dark",
                            "white"
                        ],
                        "value": "dark",
                        "editor": "dropdownlist"
                    }
                }
            }
        },
        "list": {
            "name": "List",
            "visible": true,
            "types": {
                "list": {
                    "textColor": {
                        "name": "Text color",
                        "value": "rgba(85, 85, 85, 1)",
                        "editor": "colorPicker"
                    },
                    "backgroundColor": {
                        "name": "Background color",
                        "value": "rgba(254, 253, 253, 1)",
                        "editor": "colorPicker"
                    },
                    "headerTextColor": {
                        "name": "Header text color",
                        "value": "rgba(255, 255, 255, 1)",
                        "editor": "colorPicker"
                    },
                    "headerBackgroundColor": {
                        "name": "Header background color",
                        "value": "rgba(18, 98, 152, 1)",
                        "editor": "colorPicker"
                    },
                    "hoveredItemStateTextColor": {
                        "name": "Hovered item state text color",
                        "value": "rgba(0, 119, 190, 1)",
                        "editor": "colorPicker"
                    },
                    "hoveredItemStateBackgroundColor": {
                        "name": "Hovered item state background color",
                        "value": "rgba(0, 0, 0, 0.07)",
                        "editor": "colorPicker"
                    },
                    "selectedItemStateTextColor": {
                        "name": "Selected item state text color",
                        "value": "rgba(18, 98, 152, 1)",
                        "editor": "colorPicker"
                    },
                    "selectedItemStateBackgroundColor": {
                        "name": "Selected item state background color",
                        "value": "rgba(18, 98, 152, 0.21)",
                        "editor": "colorPicker"
                    },
                    "arrowColor": {
                        "name": "Arrow color",
                        "values": [
                            "dark",
                            "white"
                        ],
                        "value": "dark",
                        "editor": "dropdownlist"
                    },
                    "arrowSelectedColor": {
                        "name": "Arrow selected color",
                        "values": [
                            "dark",
                            "white"
                        ],
                        "value": "white",
                        "editor": "dropdownlist"
                    }
                }
            }
        },
        "menu": {
            "name": "Menu",
            "visible": true,
            "types": {
                "menu": {
                    "textColor": {
                        "name": "Text color",
                        "value": "rgba(85, 85, 85, 1)",
                        "editor": "colorPicker"
                    },
                    "backgroundColor": {
                        "name": "Background color",
                        "value": "rgba(254, 253, 253, 1)",
                        "editor": "colorPicker"
                    },
                    "dropdownTextColor": {
                        "name": "Dropdown text color",
                        "value": "rgba(85, 85, 85, 1)",
                        "editor": "colorPicker"
                    },
                    "dropdownBackgroundColor": {
                        "name": "Dropdown background color",
                        "value": "rgba(254, 253, 253, 1)",
                        "editor": "colorPicker"
                    },
                    "arrowColor": {
                        "name": "Arrow color",
                        "values": [
                            "dark",
                            "white"
                        ],
                        "value": "dark",
                        "editor": "dropdownlist"
                    },
                    "hoveredItemColor": {
                        "name": "Hovered item color",
                        "value": "rgba(0, 119, 190, 1)",
                        "editor": "colorPicker"
                    },
                    "hoveredItemBackgroundColor": {
                        "name": "Hovered item background color",
                        "value": "rgba(0, 0, 0, 0.07)",
                        "editor": "colorPicker"
                    },
                    "selectedItemColor": {
                        "name": "Selected item color",
                        "value": "rgba(18, 98, 152, 1)",
                        "editor": "colorPicker"
                    },
                    "selectedItemBackgroundColor": {
                        "name": "Selected item background color",
                        "value": "rgba(18, 98, 152, 0.21)",
                        "editor": "colorPicker"
                    },
                    "selectedItemBorderColor": {
                        "name": "Selected item border color",
                        "value": "rgba(18, 98, 152, 0.21)",
                        "editor": "colorPicker"
                    },
                    "arrowSelectedColor": {
                        "name": "Arrow selected color",
                        "values": [
                            "dark",
                            "white"
                        ],
                        "value": "white",
                        "editor": "dropdownlist"
                    }
                }
            }
        },
        "navbar": {
            "name": "Navbar",
            "visible": true,
            "types": {
                "navbar": {
                    "itemTextColor": {
                        "name": "Item text color",
                        "value": "rgba(85, 85, 85, 1)",
                        "editor": "colorPicker"
                    },
                    "itemBackgroundColor": {
                        "name": "Item background color",
                        "value": "rgba(254, 253, 253, 1)",
                        "editor": "colorPicker"
                    },
                    "hoveredItemTextColor": {
                        "name": "Hovered item text color",
                        "value": "rgba(255, 255, 255, 1)",
                        "editor": "colorPicker"
                    },
                    "hoveredItemBackgroundColor": {
                        "name": "Hovered item background color",
                        "value": "rgba(0, 119, 190, 1)",
                        "editor": "colorPicker"
                    },
                    "selectedItemTextColor": {
                        "name": "Selected item text color",
                        "value": "rgba(18, 98, 152, 1)",
                        "editor": "colorPicker"
                    },
                    "selectedItemBackgroundColor": {
                        "name": "Selected item background color",
                        "value": "rgba(18, 98, 152, 0.21)",
                        "editor": "colorPicker"
                    }
                }
            }
        },
        "overlays": {
            "name": "Overlays",
            "visible": true,
            "types": {
                "overlays": {
                    "name": "Overlays",
                    "contentTextColor": {
                        "name": "Content text color",
                        "value": "rgba(85, 85, 85, 1)",
                        "editor": "colorPicker"
                    },
                    "contentBackgroundColor": {
                        "name": "Content background color",
                        "value": "rgba(254, 253, 253, 1)",
                        "editor": "colorPicker"
                    },
                    "shaderBackgroundColor": {
                        "name": "Shader background color",
                        "value": "rgba(0, 0, 0, 0.6)",
                        "editor": "colorPicker"
                    }
                },
                "popup": {
                    "name": "Popup",
                    "headerTextColor": {
                        "name": "Header text color",
                        "value": "rgba(255, 255, 255, 1)",
                        "editor": "colorPicker"
                    },
                    "headerBackgroundColor": {
                        "name": "Header background color",
                        "value": "rgba(18, 98, 152, 1)",
                        "editor": "colorPicker"
                    }
                },
                "tooltip": {
                    "name": "Tooltip",
                    "textColor": {
                        "name": "Text color",
                        "value": "rgba(85, 85, 85, 1)",
                        "editor": "colorPicker"
                    },
                    "backgroundColor": {
                        "name": "Background color",
                        "value": "rgba(254, 253, 253, 1)",
                        "editor": "colorPicker"
                    }
                },
                "toast": {
                    "name": "Toast",
                    "textColor": {
                        "name": "Text color",
                        "value": "rgba(255, 255, 255, 1)",
                        "editor": "colorPicker"
                    },
                    "infoBackgroundColor": {
                        "name": "Info background color",
                        "value": "rgba(91, 192, 222, 1)",
                        "editor": "colorPicker"
                    },
                    "warningBackgroundColor": {
                        "name": "Warning background color",
                        "value": "rgba(240, 173, 78, 1)",
                        "editor": "colorPicker"
                    },
                    "errorBackgroundColor": {
                        "name": "Error background color",
                        "value": "rgba(217, 83, 79, 1)",
                        "editor": "colorPicker"
                    },
                    "successBackgroundColor": {
                        "name": "Success background color",
                        "value": "rgba(92, 184, 92, 1)",
                        "editor": "colorPicker"
                    }
                }
            }
        },
        "pivotgrid": {
            "name": "Pivot Grid",
            "visible": true,
            "types": {
                "pivotgrid": {
                    "headerTextColor": {
                        "name": "Header text color",
                        "value": "rgba(255, 255, 255, 1)",
                        "editor": "colorPicker"
                    },
                    "headerBackgroundColor": {
                        "name": "Header background color",
                        "value": "rgba(18, 98, 152, 1)",
                        "editor": "colorPicker"
                    },
                    "cellTextColor": {
                        "name": "Cell text color",
                        "value": "rgba(85, 85, 85, 1)",
                        "editor": "colorPicker"
                    },
                    "cellBackgroundColor": {
                        "name": "Cell background color",
                        "value": "rgba(254, 253, 253, 1)",
                        "editor": "colorPicker"
                    },
                    "selectedCellTextColor": {
                        "name": "Selected cell text color",
                        "value": "rgba(18, 98, 152, 1)",
                        "editor": "colorPicker"
                    },
                    "selectedCellBackgroundColor": {
                        "name": "Selected cell background color",
                        "value": "rgba(18, 98, 152, 0.21)",
                        "editor": "colorPicker"
                    },
                    "arrowsColor": {
                        "name": "Arrows color",
                        "values": [
                            "dark",
                            "white"
                        ],
                        "value": "dark",
                        "editor": "dropdownlist"
                    }
                }
            }
        },
        "progressbar": {
            "name": "Progress Bar",
            "visible": true,
            "types": {
                "progressbar": {
                    "barBackgroundColor": {
                        "name": "Bar background color",
                        "value": "rgba(254, 253, 253, 1)",
                        "editor": "colorPicker"
                    },
                    "selectedRangeBackgroundColor": {
                        "name": "Selected range background color",
                        "value": "rgba(18, 98, 152, 0.21)",
                        "editor": "colorPicker"
                    },
                    "labelColor": {
                        "name": "Label color",
                        "value": "rgba(85, 85, 85, 1)",
                        "editor": "colorPicker"
                    }
                }
            }
        },
        "scheduler": {
            "name": "Scheduler",
            "visible": true,
            "types": {
                "scheduler": {
                    "headerTextColor": {
                        "name": "Header text color",
                        "value": "rgba(255, 255, 255, 1)",
                        "editor": "colorPicker"
                    },
                    "headerBackgroundColor": {
                        "name": "Header background color",
                        "value": "rgba(18, 98, 152, 1)",
                        "editor": "colorPicker"
                    },
                    "headerBorderColor": {
                        "name": "Header border color",
                        "value": "rgba(221, 221, 221, 1)",
                        "editor": "colorPicker"
                    },
                    "headerButtonsTextColor": {
                        "name": "Header buttons text color",
                        "value": "rgba(85, 85, 85, 1)",
                        "editor": "colorPicker"
                    },
                    "headerButtonsBackgroundColor": {
                        "name": "Header buttons background color",
                        "value": "rgba(250, 250, 250, 1)",
                        "editor": "colorPicker"
                    },
                    "headerButtonsHoveredTextColor": {
                        "name": "Header buttons hovered text color",
                        "value": "rgba(85, 85, 85, 1)",
                        "editor": "colorPicker"
                    },
                    "headerButtonsHoveredBackgroundColor": {
                        "name": "Header buttons hovered background color",
                        "value": "rgba(240, 240, 240, 1)",
                        "editor": "colorPicker"
                    },
                    "headerButtonsSelectedTextColor": {
                        "name": "Header buttons selected text color",
                        "value": "rgba(255, 255, 255, 1)",
                        "editor": "colorPicker"
                    },
                    "headerButtonsSelectedBackgroundColor": {
                        "name": "Header buttons selected background color",
                        "value": "rgba(0, 119, 190, 1)",
                        "editor": "colorPicker"
                    },
                    "borderColor": {
                        "name": "Border color",
                        "value": "rgba(221, 221, 221, 1)",
                        "editor": "colorPicker"
                    },
                    "notWorkTimeCellsColor": {
                        "name": "Not work time cells color",
                        "value": "rgba(238, 238, 238, 1)",
                        "editor": "colorPicker"
                    },
                    "hoveredCellBackgroundColor": {
                        "name": "Hovered cell background color",
                        "value": "rgba(0, 0, 0, 0.07)",
                        "editor": "colorPicker"
                    },
                    "hoveredCellBorderColor": {
                        "name": "Hovered cell border color",
                        "value": "rgba(0, 0, 0, 0.07)",
                        "editor": "colorPicker"
                    },
                    "selectedCellBackgroundColor": {
                        "name": "Selected cell background color",
                        "value": "rgba(18, 98, 152, 0.21)",
                        "editor": "colorPicker"
                    },
                    "selectedCellBorderColor": {
                        "name": "Selected cell border color",
                        "value": "rgba(18, 98, 152, 0.21)",
                        "editor": "colorPicker"
                    },
                    "weeksArrowsColor": {
                        "name": "Weeks arrows color",
                        "values": [
                            "dark",
                            "white"
                        ],
                        "value": "dark",
                        "editor": "dropdownlist"
                    },
                    "weeksArrowsSelectedColor": {
                        "name": "Weeks arrows selected color",
                        "values": [
                            "dark",
                            "white"
                        ],
                        "value": "white",
                        "editor": "dropdownlist"
                    },
                    "calendarIconColor": {
                        "name": "Calendar icon color",
                        "values": [
                            "dark",
                            "white"
                        ],
                        "value": "dark",
                        "editor": "dropdownlist"
                    },
                    "calendarIconSelectedColor": {
                        "name": "Calendar icon selected color",
                        "values": [
                            "dark",
                            "white"
                        ],
                        "value": "white",
                        "editor": "dropdownlist"
                    }
                }
            }
        },
        "scrollbar": {
            "name": "Scrollbar",
            "visible": true,
            "types": {
                "scrollbar": {
                    "scrollbarBackgroundColor": {
                        "name": "Scrollbar background color",
                        "value": "rgba(248, 248, 248, 1)",
                        "editor": "colorPicker"
                    },
                    "scrollbarThumbBackgroundColor": {
                        "name": "Scrollbar thumb background color",
                        "value": "rgba(246, 246, 246, 1)",
                        "editor": "colorPicker"
                    },
                    "scrollbarThumbHoveredBackgroundColor": {
                        "name": "Scrollbar thumb hovered background color",
                        "value": "rgba(230, 230, 230, 1)",
                        "editor": "colorPicker"
                    },
                    "scrollbarThumbActiveBackgroundColor": {
                        "name": "Scrollbar thumb active background color",
                        "value": "rgba(217, 217, 217, 1)",
                        "editor": "colorPicker"
                    },
                    "scrollbarArrowBackgroundColor": {
                        "name": "Scrollbar arrow background color",
                        "value": "rgba(248, 248, 248, 1)",
                        "editor": "colorPicker"
                    },
                    "scrollbarArrowColor": {
                        "name": "Scrollbar arrow color",
                        "values": [
                            "dark",
                            "white"
                        ],
                        "value": "dark",
                        "editor": "dropdownlist"
                    },
                    "scrollbarArrowHoveredBackgroundColor": {
                        "name": "Scrollbar arrow hovered background color",
                        "value": "rgba(248, 248, 248, 1)",
                        "editor": "colorPicker"
                    },
                    "scrollbarArrowHoveredColor": {
                        "name": "Scrollbar arrow hovered color",
                        "values": [
                            "dark",
                            "white"
                        ],
                        "value": "dark",
                        "editor": "dropdownlist"
                    },
                    "scrollbarArrowActiveBackgroundColor": {
                        "name": "Scrollbar arrow active background color",
                        "value": "rgba(248, 248, 248, 1)",
                        "editor": "colorPicker"
                    },
                    "scrollbarArrowActiveColor": {
                        "name": "Scrollbar arrow active color",
                        "values": [
                            "dark",
                            "white"
                        ],
                        "value": "dark",
                        "editor": "dropdownlist"
                    }
                }
            }
        },
        "scrollview": {
            "name": "Scroll View",
            "visible": true,
            "types": {
                "scrollview": {
                    "indicatorBackgroundColor": {
                        "name": "Indicator background color",
                        "value": "rgba(250, 250, 250, 1)",
                        "editor": "colorPicker"
                    },
                    "selectedIndicatorBackgroundColor": {
                        "name": "Selected indicator background color",
                        "value": "rgba(0, 119, 190, 1)",
                        "editor": "colorPicker"
                    }
                }
            }
        },
        "slider": {
            "name": "Slider",
            "visible": true,
            "types": {
                "slider": {
                    "sliderBarBackgroundColor": {
                        "name": "Slider bar background color",
                        "value": "rgba(254, 253, 253, 1)",
                        "editor": "colorPicker"
                    },
                    "selectedSliderBackgroundColor": {
                        "name": "Selected slider background color",
                        "value": "rgba(18, 98, 152, 0.21)",
                        "editor": "colorPicker"
                    },
                    "sliderThumbColor": {
                        "name": "Slider thumb color",
                        "value": "rgba(18, 98, 152, 1)",
                        "editor": "colorPicker"
                    },
                    "focusedBorderColor": {
                        "name": "Focused border color",
                        "value": "rgba(18, 98, 152, 1)",
                        "editor": "colorPicker"
                    },
                    "tooltipTextColor": {
                        "name": "Tooltip text color",
                        "value": "rgba(255, 255, 255, 1)",
                        "editor": "colorPicker"
                    },
                    "tooltipBackgroundColor": {
                        "name": "Tooltip background color",
                        "value": "rgba(18, 98, 152, 1)",
                        "editor": "colorPicker"
                    },
                    "tooltipBorderColor": {
                        "name": "Tooltip border color",
                        "value": "rgba(18, 98, 152, 1)",
                        "editor": "colorPicker"
                    },
                    "arrowsBackgroundColor": {
                        "name": "Arrows background color",
                        "value": "rgba(255, 255, 255, 0)",
                        "editor": "colorPicker"
                    },
                    "arrowsHoveredBackgroundColor": {
                        "name": "Arrows hovered background color",
                        "value": "rgba(0, 119, 190, 1)",
                        "editor": "colorPicker"
                    },
                    "arrowsSelectedBackgroundColor": {
                        "name": "Arrows selected background color",
                        "value": "rgba(18, 98, 152, 0.21)",
                        "editor": "colorPicker"
                    },
                    "arrowsColor": {
                        "name": "Arrows color",
                        "values": [
                            "dark",
                            "white"
                        ],
                        "value": "dark",
                        "editor": "dropdownlist"
                    },
                    "arrowsHoveredColor": {
                        "name": "Arrows hovered color",
                        "values": [
                            "dark",
                            "white"
                        ],
                        "value": "white",
                        "editor": "dropdownlist"
                    },
                    "arrowsSelectedColor": {
                        "name": "Arrows selected color",
                        "values": [
                            "dark",
                            "white"
                        ],
                        "value": "white",
                        "editor": "dropdownlist"
                    }
                }
            }
        },
        "tabs": {
            "name": "Tabs",
            "visible": true,
            "types": {
                "tabs": {
                    "headerBackgroundColor": {
                        "name": "Header background color",
                        "value": "rgba(18, 98, 152, 1)",
                        "editor": "colorPicker"
                    },
                    "tabTextColor": {
                        "name": "Tab text color",
                        "value": "rgba(255, 255, 255, 1)",
                        "editor": "colorPicker"
                    },
                    "hoveredTabTextColor": {
                        "name": "Hovered tab text color",
                        "value": "rgba(255, 255, 255, 1)",
                        "editor": "colorPicker"
                    },
                    "hoveredTabBackgroundColor": {
                        "name": "Hovered tab background color",
                        "value": "rgba(0, 119, 190, 1)",
                        "editor": "colorPicker"
                    },
                    "selectedTabTextColor": {
                        "name": "Selected tab text color",
                        "value": "rgba(18, 98, 152, 0.21)",
                        "editor": "colorPicker"
                    },
                    "selectedTabBackgroundColor": {
                        "name": "Selected tab background color",
                        "value": "rgba(18, 98, 152, 1)",
                        "editor": "colorPicker"
                    },
                    "selectedTabBottomBorderColor": {
                        "name": "Selected tab bottom border color",
                        "value": "rgba(18, 98, 152, 0.21)",
                        "editor": "colorPicker"
                    },
                    "borderColor": {
                        "name": "Border color",
                        "value": "rgba(221, 221, 221, 1)",
                        "editor": "colorPicker"
                    },
                    "contentTextColor": {
                        "name": "Content text color",
                        "value": "rgba(85, 85, 85, 1)",
                        "editor": "colorPicker"
                    },
                    "contentBackgroundColor": {
                        "name": "Content background color",
                        "value": "rgba(254, 253, 253, 1)",
                        "editor": "colorPicker"
                    },
                    "arrowsColor": {
                        "name": "Arrows color",
                        "values": [
                            "dark",
                            "white"
                        ],
                        "value": "dark",
                        "editor": "dropdownlist"
                    }
                }
            }
        },
        "toolbar": {
            "name": "Toolbar",
            "visible": true,
            "types": {
                "toolbar": {
                    "backgroundColor": {
                        "name": "Background color",
                        "value": "rgba(250, 250, 250, 1)",
                        "editor": "colorPicker"
                    }
                }
            }
        },
        "treeview": {
            "name": "Tree View",
            "visible": true,
            "types": {
                "treeview": {
                    "hoveredTreeItemColor": {
                        "name": "Hovered item color",
                        "value": "rgba(0, 119, 190, 1)",
                        "editor": "colorPicker"
                    },
                    "hoveredTreeItemBackgroundColor": {
                        "name": "Hovered item background color",
                        "value": "rgba(0, 0, 0, 0.07)",
                        "editor": "colorPicker"
                    },
                    "selectedTreeItemColor": {
                        "name": "Selected item color",
                        "value": "rgba(18, 98, 152, 1)",
                        "editor": "colorPicker"
                    },
                    "selectedTreeItemBackgroundColor": {
                        "name": "Selected item background color",
                        "value": "rgba(18, 98, 152, 0.21)",
                        "editor": "colorPicker"
                    },
                    "arrowExpandedColor": {
                        "name": "Arrow expanded color",
                        "values": [
                            "dark",
                            "white"
                        ],
                        "value": "dark",
                        "editor": "dropdownlist"
                    },
                    "arrowCollapsedColor": {
                        "name": "Arrow collapsed color",
                        "values": [
                            "dark",
                            "white"
                        ],
                        "value": "dark",
                        "editor": "dropdownlist"
                    }
                }
            }
        }
    },
    "baseTheme": "Light"
}